…
<img src="bootstrapping_files/figure-gfm/unnamed-chunk-5-1.png" width="90%" />

Formalizing and extracting results

``` r
boot_straps = 
  tibble(iter = 1:5000) |> 
  mutate(
    strap_sample = map(iter, \(i) boot_sample(df = sim_df_nonconstant))
  )

boot_straps
```

    ## # A tibble: 5,000 × 2
    ##     iter strap_sample      
    ##    <int> <list>            
    ##  1     1 <tibble [250 × 3]>
    ##  2     2 <tibble [250 × 3]>
    ##  3     3 <tibble [250 × 3]>
    ##  4     4 <tibble [250 × 3]>
    ##  5     5 <tibble [250 × 3]>
    ##  6     6 <tibble [250 × 3]>
    ##  7     7 <tibble [250 × 3]>
    ##  8     8 <tibble [250 × 3]>
    ##  9     9 <tibble [250 × 3]>
    ## 10    10 <tibble [250 × 3]>
    ## # ℹ 4,990 more rows
…
